Movielens
…
2.1 Per-movie stats

# aggregate ratings by movie, computing mean and number of ratings
# hint: use the n() function for easy counting within a group
ratings %>% group_by(movie_id) %>% summarize(count = n(), mean_ratings = mean(rating))

## `summarise()` ungrouping output (override with `.groups` argument)

## # A tibble: 10,677 x 3
##    movie_id count mean_ratings
##       <dbl> <int>        <dbl>
##  1        1 26449         3.93
##  2        2 12032         3.21
##  3        3  7790         3.15
##  4        4  1764         2.86
##  5        5  7135         3.08
##  6        6 13696         3.81
##  7        7  8064         3.37
##  8        8   899         3.13
##  9        9  2518         3.00
## 10       10 16918         3.43
## # ... with 10,667 more rows
…
3 Per-user stats

# aggregate ratings by user, computing mean and number of ratings
ratings %>% group_by(user_id) %>% summarize(count = n(), mean_ratings = mean(rating))

## `summarise()` ungrouping output (override with `.groups` argument)

## # A tibble: 69,878 x 3
##    user_id count mean_ratings
##      <dbl> <int>        <dbl>
##  1       1    22         5   
##  2       2    20         3.2 
##  3       3    33         3.94
##  4       4    38         4.03
##  5       5    87         3.85
##  6       6    42         3.93
##  7       7   109         3.93
##  8       8   800         3.40
##  9       9    24         4   
## 10      10   123         3.81
## # ... with 69,868 more rows
…
